<?xml version="1.0" encoding="UTF-8" standalone="no"?>
<!-- Generator: Adobe Illustrator 19.0.0, SVG Export Plug-In . SVG Version: 6.00 Build 0)  -->

<svg
   xmlns:dc="http://purl.org/dc/elements/1.1/"
   xmlns:cc="http://creativecommons.org/ns#"
   xmlns:rdf="http://www.w3.org/1999/02/22-rdf-syntax-ns#"
   xmlns:svg="http://www.w3.org/2000/svg"
   xmlns="http://www.w3.org/2000/svg"
   xmlns:sodipodi="http://sodipodi.sourceforge.net/DTD/sodipodi-0.dtd"
   xmlns:inkscape="http://www.inkscape.org/namespaces/inkscape"
   version="1.1"
   id="Слой_1"
   x="0px"
   y="0px"
   viewBox="-283 402.6 18.299999 17"
   xml:space="preserve"
   sodipodi:docname="calendar.svg"
   width="18.299999"
   height="17"
   inkscape:version="0.92.1 r15371"><metadata
     id="metadata19"><rdf:RDF><cc:Work
         rdf:about=""><dc:format>image/svg+xml</dc:format><dc:type
           rdf:resource="http://purl.org/dc/dcmitype/StillImage" /><dc:title></dc:title></cc:Work></rdf:RDF></metadata><defs
     id="defs17" /><sodipodi:namedview
     pagecolor="#ffffff"
     bordercolor="#666666"
     borderopacity="1"
     objecttolerance="10"
     gridtolerance="10"
     guidetolerance="10"
     inkscape:pageopacity="0"
     inkscape:pageshadow="2"
     inkscape:window-width="640"
     inkscape:window-height="480"
     id="namedview15"
     showgrid="false"
     fit-margin-top="0"
     fit-margin-left="0"
     fit-margin-right="0"
     fit-margin-bottom="0"
     inkscape:zoom="6.5013775"
     inkscape:cx="-17.45"
     inkscape:cy="5.7000004"
     inkscape:window-x="926"
     inkscape:window-y="180"
     inkscape:window-maximized="0"
     inkscape:current-layer="Слой_1" /><style
     type="text/css"
     id="style2">
	.st0{stroke:#000000;stroke-width:0.5;stroke-miterlimit:10;}
	.st1{fill:none;stroke:#000000;stroke-width:0.7;stroke-miterlimit:10;}
</style><path
     class="st0"
     d="m -266.15,404.65 h -2.1 v -1.3 c 0,-0.3 -0.2,-0.5 -0.5,-0.5 h -1.1 c -0.3,0 -0.5,0.2 -0.5,0.5 v 1.3 h -7.1 v -1.3 c 0,-0.3 -0.2,-0.5 -0.5,-0.5 h -1.1 c -0.3,0 -0.5,0.2 -0.5,0.5 v 1.3 h -2.1 c -0.6,0 -1.1,0.5 -1.1,1.1 v 12.5 c 0,0.6 0.5,1.1 1.1,1.1 h 15.6 c 0.6,0 1.1,-0.5 1.1,-1.1 v -12.5 c -0.1,-0.6 -0.6,-1.1 -1.2,-1.1 z m -3.9,-1.2 c 0,-0.1 0.1,-0.2 0.2,-0.2 h 1.1 c 0.1,0 0.2,0.1 0.2,0.2 v 2.5 c 0,0.1 -0.1,0.2 -0.2,0.2 h -1.1 c -0.1,0 -0.2,-0.1 -0.2,-0.2 v -1.1 z m -9.3,0 c 0,-0.1 0.1,-0.2 0.2,-0.2 h 1.1 c 0.1,0 0.2,0.1 0.2,0.2 v 2.5 c 0,0.1 -0.1,0.2 -0.2,0.2 h -1.1 c -0.1,0 -0.2,-0.1 -0.2,-0.2 v -1.1 z m -2.4,1.5 h 2.2 v 1 c 0,0.3 0.2,0.5 0.5,0.5 h 1.1 c 0.3,0 0.5,-0.2 0.5,-0.5 v -1 h 7.2 v 1 c 0,0.3 0.2,0.5 0.5,0.5 h 1.1 c 0.3,0 0.5,-0.2 0.5,-0.5 v -1 h 2 c 0.4,0 0.8,0.4 0.8,0.8 v -0.3 l -0.6,-0.6 h -16.2 l -0.5,0.4 v 0.5 c 0,-0.4 0.4,-0.8 0.9,-0.8 z m 15.6,14.1 h -15.6 c -0.5,0 -0.8,-0.4 -0.8,-0.8 v -12.5 c 0,-0.5 0.4,-0.9 0.9,-0.9 h 15.4 c 0.5,0 1,0.4 1,1 v 12.4 c -0.1,0.4 -0.5,0.8 -0.9,0.8 z"
     id="path4"
     inkscape:connector-curvature="0"
     style="stroke:#000000;stroke-width:0.5;stroke-miterlimit:10" /><line
     class="st1"
     x1="-280.05002"
     y1="410.54999"
     x2="-274.45001"
     y2="410.54999"
     id="line6"
     style="fill:none;stroke:#000000;stroke-width:0.69999999;stroke-miterlimit:10" /><line
     class="st1"
     x1="-273.55002"
     y1="410.54999"
     x2="-267.85001"
     y2="410.54999"
     id="line8"
     style="fill:none;stroke:#000000;stroke-width:0.69999999;stroke-miterlimit:10" /><line
     class="st1"
     x1="-280.05002"
     y1="414.25"
     x2="-274.45001"
     y2="414.25"
     id="line10"
     style="fill:none;stroke:#000000;stroke-width:0.69999999;stroke-miterlimit:10" /><line
     class="st1"
     x1="-273.55002"
     y1="414.25"
     x2="-267.85001"
     y2="414.25"
     id="line12"
     style="fill:none;stroke:#000000;stroke-width:0.69999999;stroke-miterlimit:10" /></svg>