<?xml version="1.0" encoding="UTF-8" standalone="no"?>
<!-- Generator: Adobe Illustrator 19.0.0, SVG Export Plug-In . SVG Version: 6.00 Build 0)  -->

<svg
   xmlns:dc="http://purl.org/dc/elements/1.1/"
   xmlns:cc="http://creativecommons.org/ns#"
   xmlns:rdf="http://www.w3.org/1999/02/22-rdf-syntax-ns#"
   xmlns:svg="http://www.w3.org/2000/svg"
   xmlns="http://www.w3.org/2000/svg"
   xmlns:sodipodi="http://sodipodi.sourceforge.net/DTD/sodipodi-0.dtd"
   xmlns:inkscape="http://www.inkscape.org/namespaces/inkscape"
   version="1.1"
   id="Слой_1"
   x="0px"
   y="0px"
   viewBox="-247 358.9 90 90"
   xml:space="preserve"
   sodipodi:docname="phone.svg"
   width="90"
   height="90"
   inkscape:version="0.92.1 r15371"><metadata
     id="metadata11"><rdf:RDF><cc:Work
         rdf:about=""><dc:format>image/svg+xml</dc:format><dc:type
           rdf:resource="http://purl.org/dc/dcmitype/StillImage" /><dc:title></dc:title></cc:Work></rdf:RDF></metadata><defs
     id="defs9" /><sodipodi:namedview
     pagecolor="#ffffff"
     bordercolor="#666666"
     borderopacity="1"
     objecttolerance="10"
     gridtolerance="10"
     guidetolerance="10"
     inkscape:pageopacity="0"
     inkscape:pageshadow="2"
     inkscape:window-width="640"
     inkscape:window-height="480"
     id="namedview7"
     showgrid="false"
     fit-margin-top="0"
     fit-margin-left="0"
     fit-margin-right="0"
     fit-margin-bottom="0"
     inkscape:zoom="1.888"
     inkscape:cx="45"
     inkscape:cy="32.5"
     inkscape:window-x="846"
     inkscape:window-y="203"
     inkscape:window-maximized="0"
     inkscape:current-layer="Слой_1" /><g
     id="g4"
     transform="rotate(-90,-202,408.9)"><path
       d="m -177.4,363.9 c -9,0 -18.1,3.5 -25,10.4 l -29.2,29.2 c -6.9,6.9 -10.4,15.8 -10.4,24.8 0,9.1 3.4,18.2 10.4,25.2 0.3,0.3 0.6,0.4 1,0.4 0.4,0 0.8,-0.2 1,-0.4 l 24,-24 c 0.3,-0.3 0.4,-0.6 0.4,-1 0,-0.4 -0.2,-0.8 -0.4,-1 l -11,-11 27.2,-27.2 11,11 c 0.3,0.3 0.6,0.4 1,0.4 0.4,0 0.8,-0.2 1,-0.4 l 24,-24 c 0.3,-0.3 0.4,-0.6 0.4,-1 0,-0.4 -0.2,-0.8 -0.4,-1 -6.9,-7 -16,-10.4 -25,-10.4 z m 0,33.3 -11,-11 c -0.6,-0.6 -1.5,-0.6 -2.1,0 l -29.2,29.2 c -0.3,0.3 -0.4,0.6 -0.4,1 0,0.4 0.2,0.8 0.4,1 l 11,11 -21.9,21.9 c -5.7,-6.2 -8.5,-14.1 -8.5,-22 0,-8.2 3.2,-16.5 9.5,-22.8 l 29.2,-29.2 c 6.3,-6.3 14.6,-9.5 22.9,-9.5 7.9,0 15.7,2.8 21.9,8.5 z"
       id="path2"
       inkscape:connector-curvature="0" /></g></svg>