<?xml version="1.0" encoding="UTF-8" standalone="no"?>
<svg
   xmlns:dc="http://purl.org/dc/elements/1.1/"
   xmlns:cc="http://creativecommons.org/ns#"
   xmlns:rdf="http://www.w3.org/1999/02/22-rdf-syntax-ns#"
   xmlns:svg="http://www.w3.org/2000/svg"
   xmlns="http://www.w3.org/2000/svg"
   xmlns:sodipodi="http://sodipodi.sourceforge.net/DTD/sodipodi-0.dtd"
   xmlns:inkscape="http://www.inkscape.org/namespaces/inkscape"
   enable-background="new 0 0 26 26"
   id="Слой_1"
   version="1.1"
   viewBox="0 0 23.998325 24"
   xml:space="preserve"
   sodipodi:docname="phone-brand.svg"
   width="23.998325"
   height="24"
   inkscape:version="0.92.1 r15371"><metadata
     id="metadata9"><rdf:RDF><cc:Work
         rdf:about=""><dc:format>image/svg+xml</dc:format><dc:type
           rdf:resource="http://purl.org/dc/dcmitype/StillImage" /><dc:title /></cc:Work></rdf:RDF></metadata><defs
     id="defs7" /><sodipodi:namedview
     pagecolor="#ffffff"
     bordercolor="#666666"
     borderopacity="1"
     objecttolerance="10"
     gridtolerance="10"
     guidetolerance="10"
     inkscape:pageopacity="0"
     inkscape:pageshadow="2"
     inkscape:window-width="1418"
     inkscape:window-height="611"
     id="namedview5"
     showgrid="false"
     fit-margin-top="0"
     fit-margin-left="0"
     fit-margin-right="0"
     fit-margin-bottom="0"
     inkscape:zoom="9.0769231"
     inkscape:cx="2.2763118"
     inkscape:cy="12"
     inkscape:window-x="386"
     inkscape:window-y="89"
     inkscape:window-maximized="0"
     inkscape:current-layer="Слой_1" /><path
     d="m 23.494473,18.236328 c -0.40332,-0.658203 -1.029297,-1.424805 -1.764648,-2.15918 -0.532227,-0.532226 -2.359375,-2.267578 -3.53418,-2.267578 -0.376953,0 -0.616211,0.161133 -0.75,0.294922 l -1.564453,1.563477 c -0.02637,0.02637 -0.110352,0.05664 -0.261719,0.05664 -0.868164,0 -2.708984,-0.960937 -4.547851,-2.798828 C 8.6194731,10.472656 8.0296293,8.4160157 8.329434,8.116211 L 9.8919338,6.5527344 C 10.0267,6.4179688 10.187833,6.178711 10.187833,5.8027344 10.188809,4.6269531 8.4524808,2.7998047 7.9202543,2.2675781 7.3890044,1.7353516 5.5628325,0 4.3860747,0 4.0100981,0 3.7708403,0.1601563 3.6360747,0.2949219 L 0.50814499,3.4228516 C -0.41568311,4.3457031 -0.07876911,6.1513672 1.5100981,8.7890625 2.8890044,11.078125 5.0716216,13.761719 7.6536528,16.34375 12.233731,20.923828 16.871426,24.000977 19.193692,24 c 0.578125,0 1.041992,-0.171875 1.380859,-0.510742 l 3.12793,-3.12793 c 0.676758,-0.676758 0.01074,-1.766601 -0.208008,-2.125 z m -3.980468,4.192383 C 19.478848,22.462891 19.377286,22.5 19.193692,22.5 17.612637,22.5 13.402677,19.970703 8.7141997,15.283203 6.2151763,12.78418 4.1136138,10.203125 2.7952544,8.0146484 1.3099028,5.5498047 1.4495512,4.6025391 1.5686919,4.4833984 L 4.5130278,1.5390625 C 4.8968169,1.6875 5.7864653,2.2539063 6.8597075,3.328125 7.9329497,4.4023437 8.5003325,5.2910156 8.64877,5.6748047 L 7.2688872,7.0556641 c -1.4384766,1.4384766 0.4130859,4.6005859 2.7421878,6.9306639 1.998047,1.998047 4.147461,3.238281 5.608398,3.238281 0.682617,0 1.095703,-0.269531 1.322266,-0.496093 l 1.380859,-1.379883 c 0.383789,0.148437 1.272461,0.71582 2.34668,1.789062 1.073242,1.073243 1.640625,1.962891 1.789062,2.34668 z"
     id="path2"
     inkscape:connector-curvature="0"
     style="fill:#d5004f;fill-opacity:1" /></svg>