<?xml version="1.0" encoding="UTF-8" standalone="no"?>
<!-- Generator: Adobe Illustrator 19.0.0, SVG Export Plug-In . SVG Version: 6.00 Build 0)  -->

<svg
   xmlns:dc="http://purl.org/dc/elements/1.1/"
   xmlns:cc="http://creativecommons.org/ns#"
   xmlns:rdf="http://www.w3.org/1999/02/22-rdf-syntax-ns#"
   xmlns:svg="http://www.w3.org/2000/svg"
   xmlns="http://www.w3.org/2000/svg"
   xmlns:sodipodi="http://sodipodi.sourceforge.net/DTD/sodipodi-0.dtd"
   xmlns:inkscape="http://www.inkscape.org/namespaces/inkscape"
   version="1.1"
   id="Слой_1"
   x="0px"
   y="0px"
   viewBox="-247 358.9 84.716637 90.06488"
   xml:space="preserve"
   sodipodi:docname="puzzle.svg"
   width="84.716637"
   height="90.06488"
   inkscape:version="0.92.1 r15371"><metadata
     id="metadata15"><rdf:RDF><cc:Work
         rdf:about=""><dc:format>image/svg+xml</dc:format><dc:type
           rdf:resource="http://purl.org/dc/dcmitype/StillImage" /><dc:title></dc:title></cc:Work></rdf:RDF></metadata><defs
     id="defs13" /><sodipodi:namedview
     pagecolor="#ffffff"
     bordercolor="#666666"
     borderopacity="1"
     objecttolerance="10"
     gridtolerance="10"
     guidetolerance="10"
     inkscape:pageopacity="0"
     inkscape:pageshadow="2"
     inkscape:window-width="640"
     inkscape:window-height="480"
     id="namedview11"
     showgrid="false"
     fit-margin-top="0"
     fit-margin-left="0"
     fit-margin-right="0"
     fit-margin-bottom="0"
     inkscape:zoom="1.888"
     inkscape:cx="42.592076"
     inkscape:cy="32.6"
     inkscape:window-x="527"
     inkscape:window-y="228"
     inkscape:window-maximized="0"
     inkscape:current-layer="Слой_1" /><style
     type="text/css"
     id="style2">
	.st0{fill:none;}
</style><g
     id="g8"
     transform="translate(-7.4079237,-5.0351171)"><path
       class="st0"
       d="m -159.8,390.9 c -1.9,-1.1 -4.3,-0.5 -6.8,0.1 -1.2,0.3 -2.4,0.6 -3.6,0.7 -5.9,0.5 -7.6,-1.4 -9.4,-6.2 -2.2,-5.8 -2.4,-13 -2.3,-18.8 -5.1,-1 -10.7,-1.6 -14.2,0.4 -0.9,0.5 -1.4,1 -1.5,1.7 -0.4,1.6 1.2,3.9 2.7,6.1 1.6,2.3 3.1,4.5 3,6.5 -0.2,3.3 -2.7,5.8 -6.9,6.9 -6.1,1.6 -15,0.1 -18.1,-4.6 -1.3,-1.9 -2,-5.1 1.4,-9.5 l 0.3,-0.4 c 2.1,-2.6 3.3,-4.4 1.6,-6.7 -1,-1.4 -5.8,0 -10.4,1.4 -1.9,0.6 -3.8,1.2 -5.9,1.7 -0.7,0.2 -1.5,0.4 -2.5,0.5 -0.2,4.8 -0.9,9.6 -1.6,14.6 -0.3,1.9 -0.5,3.8 -0.7,5.7 -0.4,3.4 -0.1,6 0.8,7.2 1.5,1.9 2.2,1.6 3.8,1 1,-0.4 2.1,-0.9 3.6,-0.8 2.3,0.2 4.3,1.6 5.6,4.1 1.9,3.5 2,8.2 0.3,11.2 -1,1.9 -2.2,2.9 -3.6,3.3 -2,0.5 -3.8,-0.8 -5.6,-2 -2.5,-1.7 -4.1,-2.7 -6,-1.4 -3.2,2.2 -1,7.4 0.7,11.7 0.6,1.5 1.2,2.8 1.4,3.9 0.3,1.3 0.6,3 0.8,4.8 2.4,-0.3 4.8,-0.7 7.2,-1.2 4.6,-0.8 9.3,-1.7 14.2,-1.7 0.6,0 1.2,0 1.7,0 0.3,0 0.7,0 1,0 2.6,0.1 6.1,0.1 7.2,3.4 1.1,3.3 -1.2,4.8 -2.9,6 -0.8,0.5 -1.5,1 -2,1.6 -1.3,1.6 -1.6,3 -1,4.4 1.2,2.8 5.7,4.8 9.1,5.1 3.1,0.3 6,-1.1 7.6,-3.4 1.4,-2.1 1.5,-4.7 0.2,-7.1 -0.3,-0.6 -0.6,-1.1 -1,-1.6 -1.3,-2 -2.7,-4.2 0.6,-6.8 2,-1.6 5.9,-1.7 8.7,-1.7 0.6,0 1.1,0 1.6,0 1.7,-0.1 3.4,0 5,0.1 1.2,0.1 2.5,0.1 3.8,0.1 -0.5,-3.8 -1.5,-7.6 -2.7,-11.3 -1.4,-4 -3.2,-11.2 -0.1,-14.9 1.6,-1.9 4.2,-2.6 7.6,-2.1 4.4,0.7 7.4,0.8 9.4,-3.4 1.8,-2.8 0.7,-7 -2.1,-8.6 z"
       id="path4"
       inkscape:connector-curvature="0"
       style="fill:none" /><path
       d="m -158.9,389.2 c -2.6,-1.4 -5.6,-0.7 -8.2,0 -1.2,0.3 -2.3,0.6 -3.3,0.7 -4.7,0.4 -5.8,-0.6 -7.4,-5 -2.2,-5.8 -2.3,-13.1 -2.1,-18.9 v -0.8 l -0.8,-0.2 c -5.7,-1.1 -12.1,-1.9 -16.4,0.5 -1.4,0.8 -2.2,1.8 -2.5,3 -0.6,2.4 1.2,5.1 3,7.6 1.3,1.9 2.7,3.9 2.6,5.3 -0.2,3.3 -3.5,4.6 -5.5,5.1 -5.9,1.6 -13.7,-0.3 -16,-3.8 -1.3,-2 -0.9,-4.4 1.3,-7.2 l 0.3,-0.4 c 1.9,-2.4 4.3,-5.4 1.7,-9.1 -1.8,-2.6 -6.6,-1.2 -12.6,0.7 -1.9,0.6 -3.8,1.2 -5.8,1.7 -0.8,0.2 -1.8,0.4 -3.1,0.6 l -0.8,0.1 v 0.8 c -0.2,5 -0.9,10 -1.6,15.2 -0.3,1.9 -0.5,3.8 -0.8,5.7 -0.3,2.8 -0.4,6.6 1.2,8.7 2.4,3.1 4.5,2.2 6.1,1.6 0.9,-0.4 1.7,-0.7 2.7,-0.6 2.2,0.2 3.5,2 4.1,3.1 1.6,2.9 1.7,6.9 0.3,9.4 -0.7,1.3 -1.5,2.1 -2.3,2.3 -1.1,0.3 -2.6,-0.7 -4.1,-1.7 -2.3,-1.6 -5.1,-3.5 -8.2,-1.4 -4.5,3.1 -1.9,9.4 0,14.1 0.6,1.4 1.1,2.7 1.3,3.6 0.3,1.4 0.6,3.4 0.8,5.6 l 0.1,1 1,-0.1 c 2.8,-0.3 5.6,-0.8 8.3,-1.3 5,-0.9 10.2,-1.8 15.5,-1.6 0.3,0 0.7,0 1.1,0 2.8,0.1 4.7,0.2 5.4,2.1 0.6,1.8 -0.3,2.5 -2.1,3.7 -0.9,0.6 -1.8,1.2 -2.5,2 -2.1,2.7 -1.9,5 -1.2,6.4 1.5,3.5 6.7,5.9 10.8,6.3 0.3,0 0.6,0 0.9,0 3.5,0 6.7,-1.6 8.5,-4.3 1.8,-2.7 1.9,-6 0.3,-9.1 -0.3,-0.6 -0.7,-1.2 -1,-1.7 -1.3,-2 -1.7,-2.7 0.1,-4.2 1.5,-1.2 5.1,-1.2 7.5,-1.3 0.6,0 1.1,0 1.6,0 1.6,-0.1 3.3,0 4.9,0.1 1.6,0.1 3.4,0.1 5,0.1 h 1.1 l -0.1,-1.1 c -0.5,-4.3 -1.5,-8.6 -3,-12.8 -1,-2.9 -3,-9.9 -0.4,-13 1.1,-1.3 3.1,-1.8 5.8,-1.4 4.6,0.7 8.9,0.8 11.5,-4.5 2.2,-4.2 0.7,-9.6 -3,-11.6 z m 1.5,10.6 c -2,4.2 -5.1,4.1 -9.4,3.4 -3.5,-0.5 -6.1,0.2 -7.6,2.1 -3.1,3.7 -1.3,10.9 0.1,14.9 1.3,3.7 2.2,7.5 2.7,11.3 -1.3,0 -2.5,0 -3.8,-0.1 -1.7,-0.1 -3.4,-0.1 -5,-0.1 -0.5,0 -1,0 -1.6,0 -2.8,0 -6.6,0.1 -8.7,1.7 -3.3,2.6 -1.8,4.8 -0.6,6.8 0.3,0.5 0.7,1 1,1.6 1.3,2.4 1.2,5 -0.2,7.1 -1.6,2.4 -4.5,3.7 -7.6,3.4 -3.5,-0.3 -7.9,-2.3 -9.1,-5.1 -0.6,-1.4 -0.3,-2.9 1,-4.4 0.5,-0.6 1.2,-1.1 2,-1.6 1.7,-1.1 4,-2.7 2.9,-6 -1.1,-3.3 -4.6,-3.4 -7.2,-3.4 -0.3,0 -0.7,0 -1,0 -0.6,0 -1.2,0 -1.7,0 -4.9,0 -9.6,0.8 -14.2,1.7 -2.4,0.4 -4.8,0.8 -7.2,1.2 -0.2,-1.8 -0.5,-3.6 -0.8,-4.8 -0.2,-1.1 -0.8,-2.4 -1.4,-3.9 -1.8,-4.2 -3.9,-9.5 -0.7,-11.7 1.8,-1.2 3.5,-0.3 6,1.4 1.8,1.2 3.6,2.5 5.6,2 1.3,-0.3 2.5,-1.4 3.6,-3.3 1.7,-3 1.6,-7.8 -0.3,-11.2 -1.3,-2.5 -3.3,-3.9 -5.6,-4.1 -1.5,-0.1 -2.7,0.4 -3.6,0.8 -1.6,0.6 -2.3,0.9 -3.8,-1 -0.9,-1.2 -1.2,-3.8 -0.8,-7.2 0.2,-2 0.5,-3.9 0.7,-5.7 0.7,-5 1.3,-9.8 1.6,-14.6 1,-0.2 1.8,-0.3 2.5,-0.5 2,-0.5 4,-1.1 5.9,-1.7 4.6,-1.4 9.4,-2.9 10.4,-1.4 1.6,2.4 0.5,4.1 -1.6,6.7 l -0.3,0.4 c -3.4,4.3 -2.7,7.5 -1.4,9.5 3.1,4.7 12,6.2 18.1,4.6 4.3,-1.1 6.7,-3.6 6.9,-6.9 0.1,-2 -1.4,-4.2 -3,-6.5 -1.5,-2.2 -3.1,-4.5 -2.7,-6.1 0.2,-0.7 0.7,-1.2 1.5,-1.7 3.6,-2 9.1,-1.4 14.2,-0.4 -0.1,5.8 0.1,13 2.3,18.8 1.8,4.8 3.5,6.7 9.4,6.2 1.2,-0.1 2.4,-0.4 3.6,-0.7 2.5,-0.6 4.9,-1.2 6.8,-0.1 2.5,1.3 3.6,5.5 2.1,8.6 z"
       id="path6"
       inkscape:connector-curvature="0" /></g></svg>