<?xml version="1.0" encoding="UTF-8" standalone="no"?>
<!-- Generator: Adobe Illustrator 19.0.0, SVG Export Plug-In . SVG Version: 6.00 Build 0)  -->

<svg
   xmlns:dc="http://purl.org/dc/elements/1.1/"
   xmlns:cc="http://creativecommons.org/ns#"
   xmlns:rdf="http://www.w3.org/1999/02/22-rdf-syntax-ns#"
   xmlns:svg="http://www.w3.org/2000/svg"
   xmlns="http://www.w3.org/2000/svg"
   xmlns:sodipodi="http://sodipodi.sourceforge.net/DTD/sodipodi-0.dtd"
   xmlns:inkscape="http://www.inkscape.org/namespaces/inkscape"
   version="1.1"
   id="Слой_1"
   x="0px"
   y="0px"
   viewBox="-247 358.9 89.199997 89.900002"
   xml:space="preserve"
   sodipodi:docname="city.svg"
   width="89.199997"
   height="89.900002"
   inkscape:version="0.92.1 r15371"><metadata
     id="metadata81"><rdf:RDF><cc:Work
         rdf:about=""><dc:format>image/svg+xml</dc:format><dc:type
           rdf:resource="http://purl.org/dc/dcmitype/StillImage" /><dc:title></dc:title></cc:Work></rdf:RDF></metadata><defs
     id="defs79" /><sodipodi:namedview
     pagecolor="#ffffff"
     bordercolor="#666666"
     borderopacity="1"
     objecttolerance="10"
     gridtolerance="10"
     guidetolerance="10"
     inkscape:pageopacity="0"
     inkscape:pageshadow="2"
     inkscape:window-width="716"
     inkscape:window-height="480"
     id="namedview77"
     showgrid="false"
     fit-margin-top="0"
     fit-margin-left="0"
     fit-margin-right="0"
     fit-margin-bottom="0"
     inkscape:zoom="1.888"
     inkscape:cx="44.6"
     inkscape:cy="44.9"
     inkscape:window-x="1134"
     inkscape:window-y="183"
     inkscape:window-maximized="0"
     inkscape:current-layer="Слой_1" /><style
     type="text/css"
     id="style2">
	.st0{stroke:#000000;stroke-width:0.2;stroke-miterlimit:10;}
</style><g
     id="g74"
     transform="translate(-5.4,-17.5)"><path
       class="st0"
       d="m -241.5,465.1 c 0,0.6 0.5,1.1 1.1,1.1 h 86.8 c 0.6,0 1.1,-0.5 1.1,-1.1 0,-0.6 -0.5,-1.1 -1.1,-1.1 h -4.2 v -86.4 c 0,-0.6 -0.5,-1.1 -1.1,-1.1 h -27.4 c -0.6,0 -1.1,0.5 -1.1,1.1 v 60.7 c -0.1,0.1 -0.1,0.2 -0.2,0.2 h -4.9 v -36.3 c 0,-0.6 -0.5,-1.1 -1.1,-1.1 h -12.8 v -9.6 c 0,-0.4 -0.3,-0.8 -0.7,-1 l -27.4,-12.8 c -0.4,-0.2 -0.8,-0.1 -1.1,0.1 -0.3,0.2 -0.5,0.6 -0.5,1 V 464 h -4.2 c -0.6,0 -1.2,0.5 -1.2,1.1 z m 32.8,-64 h -7 c -0.6,0 -1.1,0.5 -1.1,1.1 v 61.7 h -17 v -83.4 l 25.1,11.8 z m 13.9,2.3 V 464 h -4.2 v -8.6 c 0,-2.7 -2.2,-5 -5,-5 -2.7,0 -5,2.2 -5,5 v 8.6 h -5.5 v -60.6 z m -11.9,52 c 0,-1.5 1.2,-2.7 2.7,-2.7 1.5,0 2.7,1.2 2.7,2.7 v 8.6 h -5.4 z m 18.1,-14.6 c 0,0.2 -0.1,0.5 -0.1,0.7 0,1.3 0.5,2.4 1.3,3.3 -2.4,1.2 -4,3.7 -4,6.6 0,3.7 2.7,6.8 6.3,7.3 v 5.2 h -7.4 v -23.1 z m 4.6,3.2 c -1.3,0 -2.4,-1.1 -2.4,-2.4 0,-1.3 1.1,-2.4 2.4,-2.4 1.3,0 2.4,1.1 2.4,2.4 0,1.3 -1.1,2.4 -2.4,2.4 z m 5.1,7.4 c 0,2.8 -2.3,5.1 -5.1,5.1 -2.8,0 -5.1,-2.3 -5.1,-5.1 0,-2.8 2.3,-5.1 5.1,-5.1 2.8,0 5.1,2.3 5.1,5.1 z M -160,464 h -7.2 v -5.2 c 3.5,-0.6 6.3,-3.6 6.3,-7.3 0,-4.1 -3.3,-7.4 -7.4,-7.4 -4.1,0 -7.4,3.3 -7.4,7.4 0,3.7 2.7,6.8 6.3,7.3 v 5.2 h -13.5 v -5.2 c 3.5,-0.6 6.3,-3.6 6.3,-7.3 0,-2.9 -1.6,-5.4 -4,-6.6 0.8,-0.8 1.3,-2 1.3,-3.3 0,-2.6 -2.1,-4.7 -4.7,-4.7 -0.4,0 -0.8,0.1 -1.1,0.2 v -58.3 h 25.1 z m -13.5,-12.6 c 0,-2.8 2.3,-5.1 5.1,-5.1 2.8,0 5.1,2.3 5.1,5.1 0,2.8 -2.3,5.1 -5.1,5.1 -2.8,0.1 -5.1,-2.2 -5.1,-5.1 z"
       id="path4"
       inkscape:connector-curvature="0"
       style="stroke:#000000;stroke-width:0.2;stroke-miterlimit:10" /><path
       class="st0"
       d="m -198.6,410.3 h -12.1 c -0.6,0 -1.1,-0.5 -1.1,-1.1 0,-0.6 0.5,-1.1 1.1,-1.1 h 12.2 c 0.6,0 1.1,0.5 1.1,1.1 0,0.6 -0.5,1.1 -1.2,1.1 z"
       id="path6"
       inkscape:connector-curvature="0"
       style="stroke:#000000;stroke-width:0.2;stroke-miterlimit:10" /><path
       class="st0"
       d="m -198.6,416.2 h -12.1 c -0.6,0 -1.1,-0.5 -1.1,-1.1 0,-0.6 0.5,-1.1 1.1,-1.1 h 12.2 c 0.6,0 1.1,0.5 1.1,1.1 0,0.6 -0.5,1.1 -1.2,1.1 z"
       id="path8"
       inkscape:connector-curvature="0"
       style="stroke:#000000;stroke-width:0.2;stroke-miterlimit:10" /><path
       class="st0"
       d="m -198.6,422.1 h -12.1 c -0.6,0 -1.1,-0.5 -1.1,-1.1 0,-0.6 0.5,-1.1 1.1,-1.1 h 12.2 c 0.6,0 1.1,0.5 1.1,1.1 0,0.6 -0.5,1.1 -1.2,1.1 z"
       id="path10"
       inkscape:connector-curvature="0"
       style="stroke:#000000;stroke-width:0.2;stroke-miterlimit:10" /><path
       class="st0"
       d="m -198.6,427.9 h -12.1 c -0.6,0 -1.1,-0.5 -1.1,-1.1 0,-0.6 0.5,-1.1 1.1,-1.1 h 12.2 c 0.6,0 1.1,0.5 1.1,1.1 0,0.6 -0.5,1.1 -1.2,1.1 z"
       id="path12"
       inkscape:connector-curvature="0"
       style="stroke:#000000;stroke-width:0.2;stroke-miterlimit:10" /><path
       class="st0"
       d="m -198.6,433.8 h -12.1 c -0.6,0 -1.1,-0.5 -1.1,-1.1 0,-0.6 0.5,-1.1 1.1,-1.1 h 12.2 c 0.6,0 1.1,0.5 1.1,1.1 0,0.6 -0.5,1.1 -1.2,1.1 z"
       id="path14"
       inkscape:connector-curvature="0"
       style="stroke:#000000;stroke-width:0.2;stroke-miterlimit:10" /><path
       class="st0"
       d="m -198.6,439.7 h -12.1 c -0.6,0 -1.1,-0.5 -1.1,-1.1 0,-0.6 0.5,-1.1 1.1,-1.1 h 12.2 c 0.6,0 1.1,0.5 1.1,1.1 0,0.6 -0.5,1.1 -1.2,1.1 z"
       id="path16"
       inkscape:connector-curvature="0"
       style="stroke:#000000;stroke-width:0.2;stroke-miterlimit:10" /><path
       class="st0"
       d="m -198.6,445.6 h -12.1 c -0.6,0 -1.1,-0.5 -1.1,-1.1 0,-0.6 0.5,-1.1 1.1,-1.1 h 12.2 c 0.6,0 1.1,0.5 1.1,1.1 0,0.6 -0.5,1.1 -1.2,1.1 z"
       id="path18"
       inkscape:connector-curvature="0"
       style="stroke:#000000;stroke-width:0.2;stroke-miterlimit:10" /><rect
       x="-168.7"
       y="384.20001"
       class="st0"
       width="3.5"
       height="7.5"
       id="rect20"
       style="stroke:#000000;stroke-width:0.2;stroke-miterlimit:10" /><rect
       x="-174.39999"
       y="384.20001"
       class="st0"
       width="3.5"
       height="7.5"
       id="rect22"
       style="stroke:#000000;stroke-width:0.2;stroke-miterlimit:10" /><rect
       x="-180.2"
       y="384.20001"
       class="st0"
       width="3.5"
       height="7.5"
       id="rect24"
       style="stroke:#000000;stroke-width:0.2;stroke-miterlimit:10" /><rect
       x="-168.7"
       y="395.60001"
       class="st0"
       width="3.5"
       height="7.5"
       id="rect26"
       style="stroke:#000000;stroke-width:0.2;stroke-miterlimit:10" /><rect
       x="-174.39999"
       y="395.60001"
       class="st0"
       width="3.5"
       height="7.5"
       id="rect28"
       style="stroke:#000000;stroke-width:0.2;stroke-miterlimit:10" /><rect
       x="-180.2"
       y="395.60001"
       class="st0"
       width="3.5"
       height="7.5"
       id="rect30"
       style="stroke:#000000;stroke-width:0.2;stroke-miterlimit:10" /><rect
       x="-168.7"
       y="405.89999"
       class="st0"
       width="3.5"
       height="7.5"
       id="rect32"
       style="stroke:#000000;stroke-width:0.2;stroke-miterlimit:10" /><rect
       x="-174.39999"
       y="405.89999"
       class="st0"
       width="3.5"
       height="7.5"
       id="rect34"
       style="stroke:#000000;stroke-width:0.2;stroke-miterlimit:10" /><rect
       x="-180.2"
       y="405.89999"
       class="st0"
       width="3.5"
       height="7.5"
       id="rect36"
       style="stroke:#000000;stroke-width:0.2;stroke-miterlimit:10" /><rect
       x="-168.7"
       y="417.70001"
       class="st0"
       width="3.5"
       height="7.5"
       id="rect38"
       style="stroke:#000000;stroke-width:0.2;stroke-miterlimit:10" /><rect
       x="-174.39999"
       y="417.70001"
       class="st0"
       width="3.5"
       height="7.5"
       id="rect40"
       style="stroke:#000000;stroke-width:0.2;stroke-miterlimit:10" /><rect
       x="-180.2"
       y="417.70001"
       class="st0"
       width="3.5"
       height="7.5"
       id="rect42"
       style="stroke:#000000;stroke-width:0.2;stroke-miterlimit:10" /><rect
       x="-168.7"
       y="427.79999"
       class="st0"
       width="3.5"
       height="7.5"
       id="rect44"
       style="stroke:#000000;stroke-width:0.2;stroke-miterlimit:10" /><rect
       x="-174.39999"
       y="427.79999"
       class="st0"
       width="3.5"
       height="7.5"
       id="rect46"
       style="stroke:#000000;stroke-width:0.2;stroke-miterlimit:10" /><rect
       x="-180.2"
       y="427.79999"
       class="st0"
       width="3.5"
       height="7.5"
       id="rect48"
       style="stroke:#000000;stroke-width:0.2;stroke-miterlimit:10" /><rect
       x="-230"
       y="428.79999"
       class="st0"
       width="3.5"
       height="7.5"
       id="rect50"
       style="stroke:#000000;stroke-width:0.2;stroke-miterlimit:10" /><rect
       x="-230"
       y="439"
       class="st0"
       width="3.5"
       height="7.5"
       id="rect52"
       style="stroke:#000000;stroke-width:0.2;stroke-miterlimit:10" /><rect
       x="-230"
       y="418.70001"
       class="st0"
       width="3.5"
       height="7.5"
       id="rect54"
       style="stroke:#000000;stroke-width:0.2;stroke-miterlimit:10" /><rect
       x="-230"
       y="408"
       class="st0"
       width="3.5"
       height="7.5"
       id="rect56"
       style="stroke:#000000;stroke-width:0.2;stroke-miterlimit:10" /><rect
       x="-230"
       y="397.29999"
       class="st0"
       width="3.5"
       height="7.5"
       id="rect58"
       style="stroke:#000000;stroke-width:0.2;stroke-miterlimit:10" /><rect
       x="-224.39999"
       y="428.79999"
       class="st0"
       width="3.5"
       height="7.5"
       id="rect60"
       style="stroke:#000000;stroke-width:0.2;stroke-miterlimit:10" /><rect
       x="-224.39999"
       y="439"
       class="st0"
       width="3.5"
       height="7.5"
       id="rect62"
       style="stroke:#000000;stroke-width:0.2;stroke-miterlimit:10" /><rect
       x="-224.39999"
       y="418.70001"
       class="st0"
       width="3.5"
       height="7.5"
       id="rect64"
       style="stroke:#000000;stroke-width:0.2;stroke-miterlimit:10" /><rect
       x="-224.39999"
       y="408"
       class="st0"
       width="3.5"
       height="7.5"
       id="rect66"
       style="stroke:#000000;stroke-width:0.2;stroke-miterlimit:10" /><rect
       x="-224.39999"
       y="397.29999"
       class="st0"
       width="3.5"
       height="7.5"
       id="rect68"
       style="stroke:#000000;stroke-width:0.2;stroke-miterlimit:10" /><rect
       x="-230"
       y="449.5"
       class="st0"
       width="3.5"
       height="7.5"
       id="rect70"
       style="stroke:#000000;stroke-width:0.2;stroke-miterlimit:10" /><rect
       x="-224.39999"
       y="449.5"
       class="st0"
       width="3.5"
       height="7.5"
       id="rect72"
       style="stroke:#000000;stroke-width:0.2;stroke-miterlimit:10" /></g></svg>