<?xml version="1.0" encoding="UTF-8" standalone="no"?>
<!-- Generator: Adobe Illustrator 19.0.0, SVG Export Plug-In . SVG Version: 6.00 Build 0)  -->

<svg
   xmlns:dc="http://purl.org/dc/elements/1.1/"
   xmlns:cc="http://creativecommons.org/ns#"
   xmlns:rdf="http://www.w3.org/1999/02/22-rdf-syntax-ns#"
   xmlns:svg="http://www.w3.org/2000/svg"
   xmlns="http://www.w3.org/2000/svg"
   xmlns:sodipodi="http://sodipodi.sourceforge.net/DTD/sodipodi-0.dtd"
   xmlns:inkscape="http://www.inkscape.org/namespaces/inkscape"
   version="1.1"
   id="Слой_1"
   x="0px"
   y="0px"
   viewBox="-247 358.9 63.731834 79.090012"
   xml:space="preserve"
   sodipodi:docname="person.svg"
   width="63.731834"
   height="79.090012"
   inkscape:version="0.92.1 r15371"><metadata
     id="metadata9"><rdf:RDF><cc:Work
         rdf:about=""><dc:format>image/svg+xml</dc:format><dc:type
           rdf:resource="http://purl.org/dc/dcmitype/StillImage" /><dc:title></dc:title></cc:Work></rdf:RDF></metadata><defs
     id="defs7" /><sodipodi:namedview
     pagecolor="#ffffff"
     bordercolor="#666666"
     borderopacity="1"
     objecttolerance="10"
     gridtolerance="10"
     guidetolerance="10"
     inkscape:pageopacity="0"
     inkscape:pageshadow="2"
     inkscape:window-width="716"
     inkscape:window-height="480"
     id="namedview5"
     showgrid="false"
     fit-margin-top="0"
     fit-margin-left="0"
     fit-margin-right="0"
     fit-margin-bottom="0"
     inkscape:zoom="1.888"
     inkscape:cx="31.845193"
     inkscape:cy="34.6"
     inkscape:window-x="0"
     inkscape:window-y="0"
     inkscape:window-maximized="0"
     inkscape:current-layer="Слой_1" /><path
     d="m -231.85481,381.39001 c 0.1,1.6 0.5,3.3 0.9,4.8 0.4,1 1.1,1.9 2,2.5 0.2,1 0.4,1.8 0.6,2.6 1,3.7 5.8,11.1 12.2,11.3 h 1.6 c 6.7,-0.1 11.5,-8 12.4,-11.3 0.3,-0.9 0.4,-1.9 0.6,-2.6 0.9,-0.6 1.6,-1.5 2.1,-2.5 0.5,-1.6 0.8,-3.2 0.9,-4.8 0.2,-1.4 0,-2.9 -0.6,-4.2 1.1,-10.9 -3.5,-13.7 -5,-14.3 -0.4,-0.1 -0.7,-0.4 -1,-0.6 -4.4,-4.2 -15.3,-4.9 -20.3,0.2 -0.4,0.4 -0.9,0.7 -1.4,1 -1.3,0.7 -5.3,3.6 -4.4,13.7 -0.5,1.3 -0.7,2.8 -0.6,4.2 z m 2.9,-3.1 c 0.2,-0.3 0.3,-0.6 0.3,-0.9 -0.7,-7.1 1.2,-10.7 3,-11.6 0.7,-0.4 1.4,-0.9 2,-1.5 3.9,-4 13.3,-3.5 16.9,-0.1 0.5,0.5 1.1,0.9 1.7,1.1 0.8,0.3 4.5,2.3 3.4,12.1 0,0.3 0.1,0.6 0.2,0.9 0.4,0.9 0.6,2 0.4,3 -0.1,1.4 -0.4,2.8 -0.8,4.1 -0.3,0.7 -0.8,1.2 -1.4,1.5 -0.4,0.2 -0.6,0.5 -0.7,0.9 -0.2,1 -0.4,1.9 -0.6,2.9 -0.8,2.8 -5.1,9.4 -10,9.5 h -1.5 c -5.1,-0.2 -9.1,-6.9 -9.9,-9.5 -0.3,-1 -0.5,-1.9 -0.6,-2.9 -0.1,-0.4 -0.3,-0.8 -0.7,-0.9 -0.6,-0.3 -1.1,-0.8 -1.4,-1.5 -0.4,-1.3 -0.7,-2.7 -0.8,-4.1 v 0 c 0,-1.1 0.1,-2.1 0.5,-3 z m 32.3,30.2 c -1.1,-0.5 -3.3,-1.3 -3.3,-1.3 -1.1,-0.4 -2,-1.1 -2.8,-1.9 l -2,-1.7 c 0,0 -0.1,-0.1 -0.1,-0.1 -1.2,0 -6.6,5 -9.5,5 h -1.6 c -2.9,-0.1 -8.3,-5.1 -9.4,-5.1 -0.1,0 -0.1,0 -0.2,0 l -2,1.8 c -0.8,0.8 -1.8,1.4 -2.8,1.9 0,0 -2,0.8 -3.2,1.3 -7.6,3.1 -16.2,6.6 -12.6,21.3 1.9,6.9 24.1,8.3 29.9,8.3 h 2.2 c 5.8,0 28,-1.4 29.9,-8.3 3.7,-14.6 -4.9,-18.1 -12.5,-21.2 z m -18.9,8 h 0.3 0.3 l 3,11.9 c 0,0.2 -0.1,0.4 -0.2,0.5 l -2.5,1.9 c -0.3,0.3 -0.8,0.3 -1.2,0 l -2.5,-2 c -0.2,-0.1 -0.2,-0.3 -0.2,-0.5 z m 0.3,-5.4 h 0.8 c 0.5,0 1,-0.1 1.5,-0.2 l -1.1,2.1 c -0.2,0.5 -0.6,0.9 -1.1,1 -0.5,-0.1 -0.9,-0.5 -1.1,-1 l -1.1,-2.1 c 0.4,0.1 0.8,0.2 1.2,0.2 z m 28.7,18.1 c -0.4,1.3 -3.7,3.5 -11.5,4.9 -5.3,0.9 -10.6,1.4 -16,1.5 h -2.2 c -5.4,-0.1 -10.7,-0.6 -16,-1.5 -7.8,-1.5 -11.1,-3.6 -11.5,-4.9 -3.1,-12.6 3.5,-15.3 11.1,-18.4 1.1,-0.4 3.1,-1.2 3.1,-1.2 1.4,-0.6 2.6,-1.4 3.7,-2.4 l 0.8,-0.7 1.2,0.8 c 1.1,0.7 2.1,1.4 3,2 l 2.5,4.8 c 0.2,0.4 0.4,0.7 0.7,1.1 l -3.1,12.5 c -0.2,1.1 0.2,2.3 1.1,3 l 2.5,2 c 1.3,1 3,1 4.3,0 l 2.4,-1.9 c 1,-0.7 1.4,-1.9 1.1,-3.1 l -3.1,-12.5 c 0.3,-0.3 0.5,-0.6 0.7,-1 l 2.6,-5 c 0.9,-0.5 1.8,-1.2 2.8,-1.9 l 1.2,-0.8 0.7,0.6 c 1.1,1 2.3,1.8 3.6,2.4 0,0 2.1,0.8 3.3,1.3 7.6,3.1 14.2,5.8 11,18.4 z"
     id="path2"
     inkscape:connector-curvature="0" /></svg>